<?xml version="1.0" encoding="UTF-8" standalone="no"?>
<!-- Created with Inkscape (http://www.inkscape.org/) -->

<svg
   xmlns:dc="http://purl.org/dc/elements/1.1/"
   xmlns:cc="http://creativecommons.org/ns#"
   xmlns:rdf="http://www.w3.org/1999/02/22-rdf-syntax-ns#"
   xmlns:svg="http://www.w3.org/2000/svg"
   xmlns="http://www.w3.org/2000/svg"
   xmlns:sodipodi="http://sodipodi.sourceforge.net/DTD/sodipodi-0.dtd"
   xmlns:inkscape="http://www.inkscape.org/namespaces/inkscape"
   width="35.122856mm"
   height="48.049984mm"
   viewBox="0 0 124.45107 170.25585"
   id="svg5489"
   version="1.1"
   inkscape:version="0.91 r13725"
   sodipodi:docname="scientist2.svg"
   inkscape:export-filename="/home/cauchy/Python/bing_the_robot/data/px/scientist2.png"
   inkscape:export-xdpi="90"
   inkscape:export-ydpi="90">
  <defs
     id="defs5491" />
  <sodipodi:namedview
     id="base"
     pagecolor="#ffffff"
     bordercolor="#666666"
     borderopacity="1.0"
     inkscape:pageopacity="0.0"
     inkscape:pageshadow="2"
     inkscape:zoom="0.35"
     inkscape:cx="158.6541"
     inkscape:cy="-43.443507"
     inkscape:document-units="px"
     inkscape:current-layer="layer1"
     showgrid="false"
     inkscape:window-width="1318"
     inkscape:window-height="744"
     inkscape:window-x="0"
     inkscape:window-y="0"
     inkscape:window-maximized="1"
     fit-margin-top="0"
     fit-margin-left="0"
     fit-margin-right="0"
     fit-margin-bottom="0" />
  <metadata
     id="metadata5494">
    <rdf:RDF>
      <cc:Work
         rdf:about="">
        <dc:format>image/svg+xml</dc:format>
        <dc:type
           rdf:resource="http://purl.org/dc/dcmitype/StillImage" />
        <dc:title></dc:title>
      </cc:Work>
    </rdf:RDF>
  </metadata>
  <g
     inkscape:label="Calque 1"
     inkscape:groupmode="layer"
     id="layer1"
     transform="translate(407.93981,-318.66285)">
    <g
       id="g4278"
       transform="matrix(2.0681721,0,0,2.0681721,-635.54018,-370.71079)">
      <rect
         transform="scale(-1,1)"
         y="380.57721"
         x="-152.24228"
         height="28.639809"
         width="23.634855"
         id="rect31383-6-8"
         style="color:#000000;clip-rule:nonzero;display:inline;overflow:visible;visibility:visible;opacity:1;isolation:auto;mix-blend-mode:normal;color-interpolation:sRGB;color-interpolation-filters:linearRGB;solid-color:#000000;solid-opacity:1;fill:#e6e6e6;fill-opacity:1;fill-rule:nonzero;stroke:none;stroke-width:0.5;stroke-linecap:round;stroke-linejoin:round;stroke-miterlimit:4;stroke-dasharray:none;stroke-dashoffset:0;stroke-opacity:1;color-rendering:auto;image-rendering:auto;shape-rendering:auto;text-rendering:auto;enable-background:accumulate" />
      <rect
         style="color:#000000;clip-rule:nonzero;display:inline;overflow:visible;visibility:visible;opacity:1;isolation:auto;mix-blend-mode:normal;color-interpolation:sRGB;color-interpolation-filters:linearRGB;solid-color:#000000;solid-opacity:1;fill:#2c5aa0;fill-opacity:1;fill-rule:nonzero;stroke:none;stroke-width:0.5;stroke-linecap:round;stroke-linejoin:round;stroke-miterlimit:4;stroke-dasharray:none;stroke-dashoffset:0;stroke-opacity:1;color-rendering:auto;image-rendering:auto;shape-rendering:auto;text-rendering:auto;enable-background:accumulate"
         id="rect31415-1-4"
         width="17.86375"
         height="11.83198"
         x="-62.368641"
         y="410.03754"
         transform="matrix(-1,0,0.23227469,0.97265023,0,0)" />
      <path
         style="color:#000000;clip-rule:nonzero;display:inline;overflow:visible;visibility:visible;opacity:1;isolation:auto;mix-blend-mode:normal;color-interpolation:sRGB;color-interpolation-filters:linearRGB;solid-color:#000000;solid-opacity:1;fill:#28170b;fill-opacity:1;fill-rule:nonzero;stroke:none;stroke-width:0.5;stroke-linecap:round;stroke-linejoin:round;stroke-miterlimit:4;stroke-dasharray:none;stroke-dashoffset:0;stroke-opacity:1;color-rendering:auto;image-rendering:auto;shape-rendering:auto;text-rendering:auto;enable-background:accumulate"
         d="m 160.36471,410.49397 -18.3338,0.12146 -2.06477,2.50536 0.48583,2.52619 21.00586,0 z"
         id="rect31432-3"
         inkscape:connector-curvature="0"
         sodipodi:nodetypes="cccccc" />
      <path
         style="color:#000000;clip-rule:nonzero;display:inline;overflow:visible;visibility:visible;opacity:1;isolation:auto;mix-blend-mode:normal;color-interpolation:sRGB;color-interpolation-filters:linearRGB;solid-color:#000000;solid-opacity:1;fill:#333333;fill-opacity:1;fill-rule:nonzero;stroke:none;stroke-width:0.5;stroke-linecap:round;stroke-linejoin:round;stroke-miterlimit:4;stroke-dasharray:none;stroke-dashoffset:0;stroke-opacity:1;color-rendering:auto;image-rendering:auto;shape-rendering:auto;text-rendering:auto;enable-background:accumulate"
         d="m 160.0913,408.97626 0.38866,1.62304 -17.86523,0 -0.38671,-1.62304 17.86328,0 z"
         id="rect31415-1-9-1"
         inkscape:connector-curvature="0" />
      <rect
         style="color:#000000;clip-rule:nonzero;display:inline;overflow:visible;visibility:visible;opacity:1;isolation:auto;mix-blend-mode:normal;color-interpolation:sRGB;color-interpolation-filters:linearRGB;solid-color:#000000;solid-opacity:1;fill:#2c5aa0;fill-opacity:1;fill-rule:nonzero;stroke:none;stroke-width:0.5;stroke-linecap:round;stroke-linejoin:round;stroke-miterlimit:4;stroke-dasharray:none;stroke-dashoffset:0;stroke-opacity:1;color-rendering:auto;image-rendering:auto;shape-rendering:auto;text-rendering:auto;enable-background:accumulate"
         id="rect31415-9"
         width="17.86375"
         height="11.590126"
         x="-188.22412"
         y="401.65601"
         transform="matrix(-1,0,-0.11856079,0.9929468,0,0)" />
      <path
         style="color:#000000;clip-rule:nonzero;display:inline;overflow:visible;visibility:visible;opacity:1;isolation:auto;mix-blend-mode:normal;color-interpolation:sRGB;color-interpolation-filters:linearRGB;solid-color:#000000;solid-opacity:1;fill:#28170b;fill-opacity:1;fill-rule:nonzero;stroke:none;stroke-width:0.5;stroke-linecap:round;stroke-linejoin:round;stroke-miterlimit:4;stroke-dasharray:none;stroke-dashoffset:0;stroke-opacity:1;color-rendering:auto;image-rendering:auto;shape-rendering:auto;text-rendering:auto;enable-background:accumulate"
         d="m 139.17934,410.49397 -17.72651,0.12146 -2.79352,2.50535 -0.48583,2.5262 20.39857,0 z"
         id="rect31432-2-2"
         inkscape:connector-curvature="0"
         sodipodi:nodetypes="cccccc" />
      <path
         style="color:#000000;clip-rule:nonzero;display:inline;overflow:visible;visibility:visible;opacity:1;isolation:auto;mix-blend-mode:normal;color-interpolation:sRGB;color-interpolation-filters:linearRGB;solid-color:#000000;solid-opacity:1;fill:#333333;fill-opacity:1;fill-rule:nonzero;stroke:none;stroke-width:0.5;stroke-linecap:round;stroke-linejoin:round;stroke-miterlimit:4;stroke-dasharray:none;stroke-dashoffset:0;stroke-opacity:1;color-rendering:auto;image-rendering:auto;shape-rendering:auto;text-rendering:auto;enable-background:accumulate"
         d="m 139.39424,409.16944 -0.17969,1.5039 -17.86328,0 0.17969,-1.5039 17.86328,0 z"
         id="rect31415-19-06"
         inkscape:connector-curvature="0" />
      <rect
         transform="scale(-1,1)"
         y="370.65332"
         x="-151.92923"
         height="28.210392"
         width="23.634855"
         id="rect31383-8"
         style="color:#000000;clip-rule:nonzero;display:inline;overflow:visible;visibility:visible;opacity:1;isolation:auto;mix-blend-mode:normal;color-interpolation:sRGB;color-interpolation-filters:linearRGB;solid-color:#000000;solid-opacity:1;fill:#e6e6e6;fill-opacity:1;fill-rule:nonzero;stroke:none;stroke-width:0.5;stroke-linecap:round;stroke-linejoin:round;stroke-miterlimit:4;stroke-dasharray:none;stroke-dashoffset:0;stroke-opacity:1;color-rendering:auto;image-rendering:auto;shape-rendering:auto;text-rendering:auto;enable-background:accumulate" />
      <path
         style="color:#000000;clip-rule:nonzero;display:inline;overflow:visible;visibility:visible;opacity:1;isolation:auto;mix-blend-mode:normal;color-interpolation:sRGB;color-interpolation-filters:linearRGB;solid-color:#000000;solid-opacity:1;fill:#333333;fill-opacity:1;fill-rule:nonzero;stroke:none;stroke-width:0.5;stroke-linecap:round;stroke-linejoin:round;stroke-miterlimit:4;stroke-dasharray:none;stroke-dashoffset:0;stroke-opacity:1;color-rendering:auto;image-rendering:auto;shape-rendering:auto;text-rendering:auto;enable-background:accumulate"
         d="m 147.88546,397.86079 -0.16374,1.5039 -16.27789,0 0.16374,-1.5039 16.27789,0 z"
         id="rect31415-19-0-9"
         inkscape:connector-curvature="0" />
      <path
         transform="scale(-1,1)"
         d="m -146.61931,365.28049 a 9.469595,6.0118389 0 0 1 13.38064,-0.16516 9.469595,6.0118389 0 0 1 0.27786,8.49457 9.469595,6.0118389 0 0 1 -13.37991,0.18763 9.469595,6.0118389 0 0 1 -0.31324,-8.49408"
         sodipodi:open="true"
         sodipodi:end="3.9029227"
         sodipodi:start="3.9082111"
         sodipodi:ry="6.0118389"
         sodipodi:rx="9.469595"
         sodipodi:cy="369.45093"
         sodipodi:cx="-139.79874"
         sodipodi:type="arc"
         id="path31772-2"
         style="color:#000000;clip-rule:nonzero;display:inline;overflow:visible;visibility:visible;opacity:1;isolation:auto;mix-blend-mode:normal;color-interpolation:sRGB;color-interpolation-filters:linearRGB;solid-color:#000000;solid-opacity:1;fill:#ddc7a3;fill-opacity:1;fill-rule:nonzero;stroke:none;stroke-width:0.5;stroke-linecap:round;stroke-linejoin:round;stroke-miterlimit:4;stroke-dasharray:none;stroke-dashoffset:0;stroke-opacity:1;color-rendering:auto;image-rendering:auto;shape-rendering:auto;text-rendering:auto;enable-background:accumulate" />
      <path
         sodipodi:nodetypes="czcczscccszccccc"
         inkscape:connector-curvature="0"
         id="rect31346-6"
         d="m 157.52506,369.79375 c 0,0 -0.81369,20.57535 -0.0944,26.82383 0.71925,6.24849 2.52199,10.60977 2.52199,10.60977 l -15.47803,1.1498 c 0,0 -1.56889,-6.2057 -1.80801,-10.92054 -0.23913,-4.71483 1.07529,-17.19304 1.07529,-17.19304 0.78311,-5.23894 5.21,-10.46982 5.21,-10.46982 z m -26.47781,0 c 0,0 4.18458,5.41778 4.70635,10.65672 0,0 0.56268,12.10456 0.19923,16.77397 -0.36345,4.6694 -1.88563,11.15271 -1.88563,11.15271 l -12.23033,-1.1498 0,-10.36588 0,-27.06772 z"
         style="color:#000000;clip-rule:nonzero;display:inline;overflow:visible;visibility:visible;opacity:1;isolation:auto;mix-blend-mode:normal;color-interpolation:sRGB;color-interpolation-filters:linearRGB;solid-color:#000000;solid-opacity:1;fill:#ffffff;fill-opacity:1;fill-rule:nonzero;stroke:none;stroke-width:0.5;stroke-linecap:round;stroke-linejoin:round;stroke-miterlimit:4;stroke-dasharray:none;stroke-dashoffset:0;stroke-opacity:1;color-rendering:auto;image-rendering:auto;shape-rendering:auto;text-rendering:auto;enable-background:accumulate" />
      <path
         style="color:#000000;clip-rule:nonzero;display:inline;overflow:visible;visibility:visible;opacity:1;isolation:auto;mix-blend-mode:normal;color-interpolation:sRGB;color-interpolation-filters:linearRGB;solid-color:#000000;solid-opacity:1;fill:#e6e6e6;fill-opacity:1;fill-rule:nonzero;stroke:none;stroke-width:0.5;stroke-linecap:round;stroke-linejoin:round;stroke-miterlimit:4;stroke-dasharray:none;stroke-dashoffset:0;stroke-opacity:1;color-rendering:auto;image-rendering:auto;shape-rendering:auto;text-rendering:auto;enable-background:accumulate"
         d="m 164.16388,376.31414 c 0,0 -1.10653,-4.27009 -9.09218,-1.2913 -7.98566,2.97879 -6.28521,6.26315 -6.28521,6.26315 l 6.82433,12.97961 10.41816,-5.13646 z"
         id="rect31261-5-4-1"
         inkscape:connector-curvature="0"
         sodipodi:nodetypes="czcccc" />
      <path
         sodipodi:nodetypes="czcccc"
         inkscape:connector-curvature="0"
         id="rect31261-5-4"
         d="m 164.51744,376.31414 c 0,0 -3.5814,-10.45726 -11.56705,-7.47848 -7.98565,2.97879 -3.81033,12.45033 -3.81033,12.45033 l 6.82432,12.97961 10.41816,-5.13646 z"
         style="color:#000000;clip-rule:nonzero;display:inline;overflow:visible;visibility:visible;opacity:1;isolation:auto;mix-blend-mode:normal;color-interpolation:sRGB;color-interpolation-filters:linearRGB;solid-color:#000000;solid-opacity:1;fill:#ffffff;fill-opacity:1;fill-rule:nonzero;stroke:none;stroke-width:0.5;stroke-linecap:round;stroke-linejoin:round;stroke-miterlimit:4;stroke-dasharray:none;stroke-dashoffset:0;stroke-opacity:1;color-rendering:auto;image-rendering:auto;shape-rendering:auto;text-rendering:auto;enable-background:accumulate" />
      <path
         sodipodi:nodetypes="cccczc"
         inkscape:connector-curvature="0"
         id="rect31294-0-9"
         d="m 166.0065,389.13906 -10.17074,5.00011 0.91095,1.85297 10.17074,-5.00011 c 0,0 0.33761,-0.81871 -0.0269,-1.47553 -0.36447,-0.65681 -0.88404,-0.37744 -0.88404,-0.37744 z"
         style="color:#000000;clip-rule:nonzero;display:inline;overflow:visible;visibility:visible;opacity:1;isolation:auto;mix-blend-mode:normal;color-interpolation:sRGB;color-interpolation-filters:linearRGB;solid-color:#000000;solid-opacity:1;fill:#e6e6e6;fill-opacity:1;fill-rule:nonzero;stroke:none;stroke-width:0.5;stroke-linecap:round;stroke-linejoin:round;stroke-miterlimit:4;stroke-dasharray:none;stroke-dashoffset:0;stroke-opacity:1;color-rendering:auto;image-rendering:auto;shape-rendering:auto;text-rendering:auto;enable-background:accumulate" />
      <path
         sodipodi:nodetypes="ssszsssss"
         inkscape:connector-curvature="0"
         id="rect31565-5"
         d="m 165.81527,391.34207 -7.43505,3.36509 c -0.80463,0.36416 -1.4383,1.03875 -1.22926,1.91344 0,0 0.01,1.75749 0.93597,3.46055 0.92624,1.70306 1.81723,2.64087 2.67384,2.42887 l 5.57025,-1.3785 c 2.39085,-0.59169 3.54075,-2.164 2.7643,-4.44315 l -1.39026,-4.08094 c -0.28993,-0.85106 -1.08513,-1.62952 -1.88979,-1.26536 z"
         style="color:#000000;clip-rule:nonzero;display:inline;overflow:visible;visibility:visible;opacity:1;isolation:auto;mix-blend-mode:normal;color-interpolation:sRGB;color-interpolation-filters:linearRGB;solid-color:#000000;solid-opacity:1;fill:#ffe0b1;fill-opacity:1;fill-rule:nonzero;stroke:none;stroke-width:0.5;stroke-linecap:round;stroke-linejoin:round;stroke-miterlimit:4;stroke-dasharray:none;stroke-dashoffset:0;stroke-opacity:1;color-rendering:auto;image-rendering:auto;shape-rendering:auto;text-rendering:auto;enable-background:accumulate" />
      <path
         transform="matrix(-0.99241469,-0.12293531,-0.12293531,0.99241469,0,0)"
         d="m -217.42952,374.16576 a 2.1470854,1.9753186 0 0 1 3.03386,-0.0543 2.1470854,1.9753186 0 0 1 0.063,2.79107 2.1470854,1.9753186 0 0 1 -3.03369,0.0616 2.1470854,1.9753186 0 0 1 -0.071,-2.79091"
         sodipodi:open="true"
         sodipodi:end="3.9029227"
         sodipodi:start="3.9082111"
         sodipodi:ry="1.9753186"
         sodipodi:rx="2.1470854"
         sodipodi:cy="375.53604"
         sodipodi:cx="-215.88306"
         sodipodi:type="arc"
         id="path31777-0"
         style="color:#000000;clip-rule:nonzero;display:inline;overflow:visible;visibility:visible;opacity:1;isolation:auto;mix-blend-mode:normal;color-interpolation:sRGB;color-interpolation-filters:linearRGB;solid-color:#000000;solid-opacity:1;fill:#ffe0b1;fill-opacity:1;fill-rule:nonzero;stroke:none;stroke-width:0.5;stroke-linecap:round;stroke-linejoin:round;stroke-miterlimit:4;stroke-dasharray:none;stroke-dashoffset:0;stroke-opacity:1;color-rendering:auto;image-rendering:auto;shape-rendering:auto;text-rendering:auto;enable-background:accumulate" />
      <path
         transform="matrix(-0.99241469,-0.12293531,-0.12293531,0.99241469,0,0)"
         d="m -215.62596,374.9387 a 2.1470854,1.9753186 0 0 1 3.03386,-0.0543 2.1470854,1.9753186 0 0 1 0.063,2.79107 2.1470854,1.9753186 0 0 1 -3.03369,0.0617 2.1470854,1.9753186 0 0 1 -0.071,-2.79091"
         sodipodi:open="true"
         sodipodi:end="3.9029227"
         sodipodi:start="3.9082111"
         sodipodi:ry="1.9753186"
         sodipodi:rx="2.1470854"
         sodipodi:cy="376.30899"
         sodipodi:cx="-214.0795"
         sodipodi:type="arc"
         id="path31777-4-4"
         style="color:#000000;clip-rule:nonzero;display:inline;overflow:visible;visibility:visible;opacity:1;isolation:auto;mix-blend-mode:normal;color-interpolation:sRGB;color-interpolation-filters:linearRGB;solid-color:#000000;solid-opacity:1;fill:#ffe0b1;fill-opacity:1;fill-rule:nonzero;stroke:none;stroke-width:0.5;stroke-linecap:round;stroke-linejoin:round;stroke-miterlimit:4;stroke-dasharray:none;stroke-dashoffset:0;stroke-opacity:1;color-rendering:auto;image-rendering:auto;shape-rendering:auto;text-rendering:auto;enable-background:accumulate" />
      <path
         transform="matrix(-0.99241469,-0.12293531,-0.12293531,0.99241469,0,0)"
         d="m -213.56477,376.4846 a 2.1470854,1.9753186 0 0 1 3.03385,-0.0543 2.1470854,1.9753186 0 0 1 0.063,2.79108 2.1470854,1.9753186 0 0 1 -3.03369,0.0616 2.1470854,1.9753186 0 0 1 -0.071,-2.79091"
         sodipodi:open="true"
         sodipodi:end="3.9029227"
         sodipodi:start="3.9082111"
         sodipodi:ry="1.9753186"
         sodipodi:rx="2.1470854"
         sodipodi:cy="377.85489"
         sodipodi:cx="-212.01831"
         sodipodi:type="arc"
         id="path31777-5-8"
         style="color:#000000;clip-rule:nonzero;display:inline;overflow:visible;visibility:visible;opacity:1;isolation:auto;mix-blend-mode:normal;color-interpolation:sRGB;color-interpolation-filters:linearRGB;solid-color:#000000;solid-opacity:1;fill:#ffe0b1;fill-opacity:1;fill-rule:nonzero;stroke:none;stroke-width:0.5;stroke-linecap:round;stroke-linejoin:round;stroke-miterlimit:4;stroke-dasharray:none;stroke-dashoffset:0;stroke-opacity:1;color-rendering:auto;image-rendering:auto;shape-rendering:auto;text-rendering:auto;enable-background:accumulate" />
      <path
         transform="matrix(-0.99241469,-0.12293531,-0.12293531,0.99241469,0,0)"
         d="m -211.3318,376.82811 a 2.1470854,1.9753186 0 0 1 3.03386,-0.0543 2.1470854,1.9753186 0 0 1 0.063,2.79107 2.1470854,1.9753186 0 0 1 -3.03368,0.0616 2.1470854,1.9753186 0 0 1 -0.071,-2.79091"
         sodipodi:open="true"
         sodipodi:end="3.9029227"
         sodipodi:start="3.9082111"
         sodipodi:ry="1.9753186"
         sodipodi:rx="2.1470854"
         sodipodi:cy="378.19839"
         sodipodi:cx="-209.78534"
         sodipodi:type="arc"
         id="path31777-2-7"
         style="color:#000000;clip-rule:nonzero;display:inline;overflow:visible;visibility:visible;opacity:1;isolation:auto;mix-blend-mode:normal;color-interpolation:sRGB;color-interpolation-filters:linearRGB;solid-color:#000000;solid-opacity:1;fill:#ffe0b1;fill-opacity:1;fill-rule:nonzero;stroke:none;stroke-width:0.5;stroke-linecap:round;stroke-linejoin:round;stroke-miterlimit:4;stroke-dasharray:none;stroke-dashoffset:0;stroke-opacity:1;color-rendering:auto;image-rendering:auto;shape-rendering:auto;text-rendering:auto;enable-background:accumulate" />
      <g
         style="fill:#e6e6e6"
         transform="matrix(0.94182394,0.33610664,-0.33610664,0.94182394,-49.11826,-136.41753)"
         id="g31297-4-4-1-6">
        <path
           style="color:#000000;clip-rule:nonzero;display:inline;overflow:visible;visibility:visible;opacity:1;isolation:auto;mix-blend-mode:normal;color-interpolation:sRGB;color-interpolation-filters:linearRGB;solid-color:#000000;solid-opacity:1;fill:#e6e6e6;fill-opacity:1;fill-rule:nonzero;stroke:none;stroke-width:0.5;stroke-linecap:round;stroke-linejoin:round;stroke-miterlimit:4;stroke-dasharray:none;stroke-dashoffset:0;stroke-opacity:1;color-rendering:auto;image-rendering:auto;shape-rendering:auto;text-rendering:auto;enable-background:accumulate"
           d="m 328.17814,428.01618 c 0,0 0.62941,-3.63228 9.15168,-3.51082 8.52227,0.12146 7.00218,3.02499 7.00218,3.02499 l -2.06478,14.51821 -11.53847,-1.33603 z"
           id="rect31261-5-7-7-2"
           inkscape:connector-curvature="0"
           sodipodi:nodetypes="czcccc" />
        <path
           style="color:#000000;clip-rule:nonzero;display:inline;overflow:visible;visibility:visible;opacity:1;isolation:auto;mix-blend-mode:normal;color-interpolation:sRGB;color-interpolation-filters:linearRGB;solid-color:#000000;solid-opacity:1;fill:#e6e6e6;fill-opacity:1;fill-rule:nonzero;stroke:none;stroke-width:0.5;stroke-linecap:round;stroke-linejoin:round;stroke-miterlimit:4;stroke-dasharray:none;stroke-dashoffset:0;stroke-opacity:1;color-rendering:auto;image-rendering:auto;shape-rendering:auto;text-rendering:auto;enable-background:accumulate"
           d="m 331.08625,440.59548 11.25962,1.29077 -0.23516,2.05135 -11.25962,-1.29077 c 0,0 -0.59314,-0.65761 -0.47059,-1.39873 0.12251,-0.74111 0.70575,-0.65262 0.70575,-0.65262 z"
           id="rect31294-0-4-2-9"
           inkscape:connector-curvature="0"
           sodipodi:nodetypes="cccczc" />
      </g>
      <path
         sodipodi:nodetypes="czcccc"
         inkscape:connector-curvature="0"
         id="rect31261-5-7-7"
         d="m 115.75513,377.00121 c 0,0 3.5814,-10.45726 11.56705,-7.47848 7.98565,2.97879 3.81033,12.45033 3.81033,12.45033 l -6.82432,12.97961 -10.41816,-5.13646 z"
         style="color:#000000;clip-rule:nonzero;display:inline;overflow:visible;visibility:visible;opacity:1;isolation:auto;mix-blend-mode:normal;color-interpolation:sRGB;color-interpolation-filters:linearRGB;solid-color:#000000;solid-opacity:1;fill:#ffffff;fill-opacity:1;fill-rule:nonzero;stroke:none;stroke-width:0.5;stroke-linecap:round;stroke-linejoin:round;stroke-miterlimit:4;stroke-dasharray:none;stroke-dashoffset:0;stroke-opacity:1;color-rendering:auto;image-rendering:auto;shape-rendering:auto;text-rendering:auto;enable-background:accumulate" />
      <path
         sodipodi:nodetypes="cccczc"
         inkscape:connector-curvature="0"
         id="rect31294-0-4-2"
         d="m 114.26607,389.82613 10.17074,5.00011 -0.91095,1.85297 -10.17074,-5.00011 c 0,0 -0.33761,-0.81871 0.0269,-1.47553 0.36447,-0.65681 0.88404,-0.37744 0.88404,-0.37744 z"
         style="color:#000000;clip-rule:nonzero;display:inline;overflow:visible;visibility:visible;opacity:1;isolation:auto;mix-blend-mode:normal;color-interpolation:sRGB;color-interpolation-filters:linearRGB;solid-color:#000000;solid-opacity:1;fill:#e6e6e6;fill-opacity:1;fill-rule:nonzero;stroke:none;stroke-width:0.5;stroke-linecap:round;stroke-linejoin:round;stroke-miterlimit:4;stroke-dasharray:none;stroke-dashoffset:0;stroke-opacity:1;color-rendering:auto;image-rendering:auto;shape-rendering:auto;text-rendering:auto;enable-background:accumulate" />
      <path
         sodipodi:nodetypes="ssszsssss"
         inkscape:connector-curvature="0"
         id="rect31565-4-7"
         d="m 114.45729,392.02914 7.43505,3.36509 c 0.80463,0.36416 1.4383,1.03875 1.22926,1.91344 0,0 -0.01,1.75749 -0.93597,3.46054 -0.92624,1.70307 -1.81723,2.64088 -2.67384,2.42888 l -5.57025,-1.3785 c -2.39085,-0.59169 -3.54075,-2.164 -2.7643,-4.44315 l 1.39026,-4.08094 c 0.28993,-0.85106 1.08513,-1.62952 1.88979,-1.26536 z"
         style="color:#000000;clip-rule:nonzero;display:inline;overflow:visible;visibility:visible;opacity:1;isolation:auto;mix-blend-mode:normal;color-interpolation:sRGB;color-interpolation-filters:linearRGB;solid-color:#000000;solid-opacity:1;fill:#ffe0b1;fill-opacity:1;fill-rule:nonzero;stroke:none;stroke-width:0.5;stroke-linecap:round;stroke-linejoin:round;stroke-miterlimit:4;stroke-dasharray:none;stroke-dashoffset:0;stroke-opacity:1;color-rendering:auto;image-rendering:auto;shape-rendering:auto;text-rendering:auto;enable-background:accumulate" />
      <path
         transform="matrix(0.99241469,-0.12293531,0.12293531,0.99241469,0,0)"
         d="m 60.632582,409.30296 a 2.1470854,1.9753186 0 0 1 3.033856,-0.0543 2.1470854,1.9753186 0 0 1 0.063,2.79108 2.1470854,1.9753186 0 0 1 -3.03369,0.0617 2.1470854,1.9753186 0 0 1 -0.07102,-2.79091"
         sodipodi:open="true"
         sodipodi:end="3.9029227"
         sodipodi:start="3.9082111"
         sodipodi:ry="1.9753186"
         sodipodi:rx="2.1470854"
         sodipodi:cy="410.67325"
         sodipodi:cx="62.179043"
         sodipodi:type="arc"
         id="path31777-3-2"
         style="color:#000000;clip-rule:nonzero;display:inline;overflow:visible;visibility:visible;opacity:1;isolation:auto;mix-blend-mode:normal;color-interpolation:sRGB;color-interpolation-filters:linearRGB;solid-color:#000000;solid-opacity:1;fill:#ffe0b1;fill-opacity:1;fill-rule:nonzero;stroke:none;stroke-width:0.5;stroke-linecap:round;stroke-linejoin:round;stroke-miterlimit:4;stroke-dasharray:none;stroke-dashoffset:0;stroke-opacity:1;color-rendering:auto;image-rendering:auto;shape-rendering:auto;text-rendering:auto;enable-background:accumulate" />
      <path
         transform="matrix(0.99241469,-0.12293531,0.12293531,0.99241469,0,0)"
         d="m 62.43614,410.07591 a 2.1470854,1.9753186 0 0 1 3.033856,-0.0543 2.1470854,1.9753186 0 0 1 0.063,2.79108 2.1470854,1.9753186 0 0 1 -3.033689,0.0616 2.1470854,1.9753186 0 0 1 -0.07102,-2.79091"
         sodipodi:open="true"
         sodipodi:end="3.9029227"
         sodipodi:start="3.9082111"
         sodipodi:ry="1.9753186"
         sodipodi:rx="2.1470854"
         sodipodi:cy="411.4462"
         sodipodi:cx="63.982601"
         sodipodi:type="arc"
         id="path31777-4-0-2"
         style="color:#000000;clip-rule:nonzero;display:inline;overflow:visible;visibility:visible;opacity:1;isolation:auto;mix-blend-mode:normal;color-interpolation:sRGB;color-interpolation-filters:linearRGB;solid-color:#000000;solid-opacity:1;fill:#ffe0b1;fill-opacity:1;fill-rule:nonzero;stroke:none;stroke-width:0.5;stroke-linecap:round;stroke-linejoin:round;stroke-miterlimit:4;stroke-dasharray:none;stroke-dashoffset:0;stroke-opacity:1;color-rendering:auto;image-rendering:auto;shape-rendering:auto;text-rendering:auto;enable-background:accumulate" />
      <path
         transform="matrix(0.99241469,-0.12293531,0.12293531,0.99241469,0,0)"
         d="m 64.497332,411.62181 a 2.1470854,1.9753186 0 0 1 3.033856,-0.0543 2.1470854,1.9753186 0 0 1 0.063,2.79107 2.1470854,1.9753186 0 0 1 -3.03369,0.0616 2.1470854,1.9753186 0 0 1 -0.07102,-2.79091"
         sodipodi:open="true"
         sodipodi:end="3.9029227"
         sodipodi:start="3.9082111"
         sodipodi:ry="1.9753186"
         sodipodi:rx="2.1470854"
         sodipodi:cy="412.9921"
         sodipodi:cx="66.043793"
         sodipodi:type="arc"
         id="path31777-5-7-6"
         style="color:#000000;clip-rule:nonzero;display:inline;overflow:visible;visibility:visible;opacity:1;isolation:auto;mix-blend-mode:normal;color-interpolation:sRGB;color-interpolation-filters:linearRGB;solid-color:#000000;solid-opacity:1;fill:#ffe0b1;fill-opacity:1;fill-rule:nonzero;stroke:none;stroke-width:0.5;stroke-linecap:round;stroke-linejoin:round;stroke-miterlimit:4;stroke-dasharray:none;stroke-dashoffset:0;stroke-opacity:1;color-rendering:auto;image-rendering:auto;shape-rendering:auto;text-rendering:auto;enable-background:accumulate" />
      <path
         transform="matrix(0.99241469,-0.12293531,0.12293531,0.99241469,0,0)"
         d="m 66.730303,411.96532 a 2.1470854,1.9753186 0 0 1 3.033856,-0.0543 2.1470854,1.9753186 0 0 1 0.063,2.79107 2.1470854,1.9753186 0 0 1 -3.03369,0.0617 2.1470854,1.9753186 0 0 1 -0.07102,-2.79091"
         sodipodi:open="true"
         sodipodi:end="3.9029227"
         sodipodi:start="3.9082111"
         sodipodi:ry="1.9753186"
         sodipodi:rx="2.1470854"
         sodipodi:cy="413.3356"
         sodipodi:cx="68.276764"
         sodipodi:type="arc"
         id="path31777-2-8-1"
         style="color:#000000;clip-rule:nonzero;display:inline;overflow:visible;visibility:visible;opacity:1;isolation:auto;mix-blend-mode:normal;color-interpolation:sRGB;color-interpolation-filters:linearRGB;solid-color:#000000;solid-opacity:1;fill:#ffe0b1;fill-opacity:1;fill-rule:nonzero;stroke:none;stroke-width:0.5;stroke-linecap:round;stroke-linejoin:round;stroke-miterlimit:4;stroke-dasharray:none;stroke-dashoffset:0;stroke-opacity:1;color-rendering:auto;image-rendering:auto;shape-rendering:auto;text-rendering:auto;enable-background:accumulate" />
      <path
         sodipodi:nodetypes="szszzzsszzzs"
         inkscape:connector-curvature="0"
         id="rect31770-0-7-77-39"
         d="m 150.5631,342.26857 c -2.80465,-0.67278 -8.14022,-1.00701 -12.30996,-0.8681 -4.16976,0.13898 -9.80039,1.20712 -12.70854,1.70158 -2.89589,0.49236 -3.70441,2.26823 -5.13424,5.9968 -1.42982,3.72856 -1.39336,5.40087 -1.30443,8.31077 0.089,2.90991 0.20643,6.2738 1.83811,9.14866 1.6317,2.87487 2.58918,5.22176 5.49004,5.64284 4.26581,0.61921 20.50777,-0.15104 25.01848,-0.83354 2.9062,-0.43971 3.52157,-2.63798 5.13426,-5.99677 1.61265,-3.35878 1.36465,-6.33955 1.27569,-9.24947 -0.0889,-2.90989 -0.35482,-5.51714 -1.8094,-8.20997 -1.45457,-2.69284 -2.65532,-4.96282 -5.49001,-5.64282 z"
         style="color:#000000;clip-rule:nonzero;display:inline;overflow:visible;visibility:visible;opacity:1;isolation:auto;mix-blend-mode:normal;color-interpolation:sRGB;color-interpolation-filters:linearRGB;solid-color:#000000;solid-opacity:1;fill:#ffe0b1;fill-opacity:1;fill-rule:nonzero;stroke:none;stroke-width:0.5;stroke-linecap:round;stroke-linejoin:round;stroke-miterlimit:4;stroke-dasharray:none;stroke-dashoffset:0;stroke-opacity:1;color-rendering:auto;image-rendering:auto;shape-rendering:auto;text-rendering:auto;enable-background:accumulate" />
      <path
         sodipodi:nodetypes="csssscsssc"
         inkscape:connector-curvature="0"
         id="rect31770-0-7-77-7-0"
         d="m 119.0535,358.51805 c 0.10155,2.66018 0.34857,5.57671 1.79503,8.12523 1.63171,2.87487 2.58897,5.22334 5.48982,5.64441 4.26582,0.61921 20.50876,-0.15088 25.01947,-0.83337 2.9062,-0.43971 3.52063,-2.63803 5.13331,-5.99682 1.44953,-3.01902 1.39226,-5.72868 1.30195,-8.35996 -2.14197,6.71213 -7.4656,2.86183 -14.27488,3.92077 -1.21273,0.18859 -4.36591,-0.31847 -5.34199,-0.28268 -1.34602,0.0494 -4.92945,0.90378 -6.64619,0.71115 -6.51815,-0.73137 -9.24662,3.14417 -12.47652,-2.92873 z"
         style="color:#000000;clip-rule:nonzero;display:inline;overflow:visible;visibility:visible;opacity:0.2;isolation:auto;mix-blend-mode:normal;color-interpolation:sRGB;color-interpolation-filters:linearRGB;solid-color:#000000;solid-opacity:1;fill:#333333;fill-opacity:1;fill-rule:nonzero;stroke:none;stroke-width:0.5;stroke-linecap:round;stroke-linejoin:round;stroke-miterlimit:4;stroke-dasharray:none;stroke-dashoffset:0;stroke-opacity:1;color-rendering:auto;image-rendering:auto;shape-rendering:auto;text-rendering:auto;enable-background:accumulate" />
      <path
         transform="matrix(-0.99975372,-0.02219237,-0.02219237,0.99975372,0,0)"
         d="m -139.99171,349.97964 a 3.4615386,4.0080972 0 0 1 4.89119,-0.11012 3.4615386,4.0080972 0 0 1 0.10157,5.66334 3.4615386,4.0080972 0 0 1 -4.89093,0.12509 3.4615386,4.0080972 0 0 1 -0.1145,-5.663"
         sodipodi:open="true"
         sodipodi:end="3.9029227"
         sodipodi:start="3.9082111"
         sodipodi:ry="4.0080972"
         sodipodi:rx="3.4615386"
         sodipodi:cy="352.76007"
         sodipodi:cx="-137.4985"
         sodipodi:type="arc"
         id="path31745-7-6-6-8"
         style="color:#000000;clip-rule:nonzero;display:inline;overflow:visible;visibility:visible;opacity:1;isolation:auto;mix-blend-mode:normal;color-interpolation:sRGB;color-interpolation-filters:linearRGB;solid-color:#000000;solid-opacity:1;fill:#ffffff;fill-opacity:1;fill-rule:nonzero;stroke:none;stroke-width:0.5;stroke-linecap:round;stroke-linejoin:round;stroke-miterlimit:4;stroke-dasharray:none;stroke-dashoffset:0;stroke-opacity:1;color-rendering:auto;image-rendering:auto;shape-rendering:auto;text-rendering:auto;enable-background:accumulate" />
      <path
         transform="matrix(-0.99975372,-0.02219237,-0.02219237,0.99975372,0,0)"
         d="m -157.14149,349.61526 a 3.4615386,4.0080972 0 0 1 4.89119,-0.11012 3.4615386,4.0080972 0 0 1 0.10157,5.66334 3.4615386,4.0080972 0 0 1 -4.89093,0.12509 3.4615386,4.0080972 0 0 1 -0.1145,-5.663"
         sodipodi:open="true"
         sodipodi:end="3.9029227"
         sodipodi:start="3.9082111"
         sodipodi:ry="4.0080972"
         sodipodi:rx="3.4615386"
         sodipodi:cy="352.39569"
         sodipodi:cx="-154.64828"
         sodipodi:type="arc"
         id="path31745-1-5-5"
         style="color:#000000;clip-rule:nonzero;display:inline;overflow:visible;visibility:visible;opacity:1;isolation:auto;mix-blend-mode:normal;color-interpolation:sRGB;color-interpolation-filters:linearRGB;solid-color:#000000;solid-opacity:1;fill:#ffffff;fill-opacity:1;fill-rule:nonzero;stroke:none;stroke-width:0.5;stroke-linecap:round;stroke-linejoin:round;stroke-miterlimit:4;stroke-dasharray:none;stroke-dashoffset:0;stroke-opacity:1;color-rendering:auto;image-rendering:auto;shape-rendering:auto;text-rendering:auto;enable-background:accumulate" />
      <rect
         transform="matrix(-0.99544685,0.09531824,0.09531824,0.99544685,0,0)"
         ry="1.4574898"
         y="376.20535"
         x="-110.4589"
         height="2.9149797"
         width="15.303644"
         id="rect31775-4-9-6"
         style="color:#000000;clip-rule:nonzero;display:inline;overflow:visible;visibility:visible;opacity:1;isolation:auto;mix-blend-mode:normal;color-interpolation:sRGB;color-interpolation-filters:linearRGB;solid-color:#000000;solid-opacity:1;fill:#7f7058;fill-opacity:1;fill-rule:nonzero;stroke:none;stroke-width:0.5;stroke-linecap:round;stroke-linejoin:round;stroke-miterlimit:4;stroke-dasharray:none;stroke-dashoffset:0;stroke-opacity:1;color-rendering:auto;image-rendering:auto;shape-rendering:auto;text-rendering:auto;enable-background:accumulate" />
      <path
         d="m 128.23535,354.96378 a 1.6071428,1.9642857 0 0 1 2.27091,-0.054 1.6071428,1.9642857 0 0 1 0.0472,2.77548 1.6071428,1.9642857 0 0 1 -2.27079,0.0613 1.6071428,1.9642857 0 0 1 -0.0532,-2.77533"
         sodipodi:open="true"
         sodipodi:end="3.9029227"
         sodipodi:start="3.9082111"
         sodipodi:ry="1.9642857"
         sodipodi:rx="1.6071428"
         sodipodi:cy="356.32642"
         sodipodi:cx="129.39291"
         sodipodi:type="arc"
         id="path53841-8"
         style="color:#000000;clip-rule:nonzero;display:inline;overflow:visible;visibility:visible;opacity:1;isolation:auto;mix-blend-mode:normal;color-interpolation:sRGB;color-interpolation-filters:linearRGB;solid-color:#000000;solid-opacity:1;fill:#6f8a91;fill-opacity:1;fill-rule:nonzero;stroke:none;stroke-width:1.5;stroke-linecap:round;stroke-linejoin:round;stroke-miterlimit:4;stroke-dasharray:none;stroke-dashoffset:0;stroke-opacity:1;color-rendering:auto;image-rendering:auto;shape-rendering:auto;text-rendering:auto;enable-background:accumulate" />
      <path
         d="m 145.021,354.96378 a 1.6071428,1.9642857 0 0 1 2.27091,-0.054 1.6071428,1.9642857 0 0 1 0.0471,2.77548 1.6071428,1.9642857 0 0 1 -2.27078,0.0613 1.6071428,1.9642857 0 0 1 -0.0532,-2.77533"
         sodipodi:open="true"
         sodipodi:end="3.9029227"
         sodipodi:start="3.9082111"
         sodipodi:ry="1.9642857"
         sodipodi:rx="1.6071428"
         sodipodi:cy="356.32642"
         sodipodi:cx="146.17856"
         sodipodi:type="arc"
         id="path53841-8-5"
         style="color:#000000;clip-rule:nonzero;display:inline;overflow:visible;visibility:visible;opacity:1;isolation:auto;mix-blend-mode:normal;color-interpolation:sRGB;color-interpolation-filters:linearRGB;solid-color:#000000;solid-opacity:1;fill:#6f8a91;fill-opacity:1;fill-rule:nonzero;stroke:none;stroke-width:1.5;stroke-linecap:round;stroke-linejoin:round;stroke-miterlimit:4;stroke-dasharray:none;stroke-dashoffset:0;stroke-opacity:1;color-rendering:auto;image-rendering:auto;shape-rendering:auto;text-rendering:auto;enable-background:accumulate" />
      <path
         sodipodi:nodetypes="czccccssccccccccccccc"
         inkscape:connector-curvature="0"
         id="rect4246"
         d="m 119.30513,341.27198 c 0,0 3.54138,-2.71541 5.27488,-2.81899 1.73352,-0.10357 -3.82509,-0.98033 -3.82509,-0.98033 0,-1.83896 10.18513,-2.97834 10.18513,-2.97834 3.99717,-0.61299 8.53772,1.71248 8.53772,1.71248 -1.8169,-1.9922 -3.09002,-2.87083 -3.09002,-2.87083 12.2309,-0.25791 15.58655,4.12952 18.86426,6.5624 0.6175,0.45834 -1.22112,-2.40444 -0.33574,-1.84456 5.58497,3.53169 4.36055,18.23627 4.36055,18.23627 0,0 -5.45069,-2.14545 -5.45069,-6.28309 0,0 -3.53646,1.28023 -8.0787,1.12698 l 2.10915,-2.85359 c 0,0 -3.83133,2.27322 -8.37357,2.73295 l 0.5468,-2.53586 c 0,0 -2.21566,2.05756 -6.93959,2.67055 l 1.31377,-2.59473 c 0,0 -3.1005,2.86793 -8.00611,3.02118 l 1.81076,-2.62464 c -3.08871,1.83896 -6.54154,2.12989 -6.54154,2.12989 -0.36339,5.21036 -3.81549,5.21036 -3.81549,5.21036 0,0 -2.18027,-10.26748 1.45352,-15.0181 z"
         style="color:#000000;clip-rule:nonzero;display:inline;overflow:visible;visibility:visible;opacity:1;isolation:auto;mix-blend-mode:normal;color-interpolation:sRGB;color-interpolation-filters:linearRGB;solid-color:#000000;solid-opacity:1;fill:#333333;fill-opacity:1;fill-rule:nonzero;stroke:none;stroke-width:10;stroke-linecap:round;stroke-linejoin:round;stroke-miterlimit:4;stroke-dasharray:none;stroke-dashoffset:0;stroke-opacity:1;color-rendering:auto;image-rendering:auto;shape-rendering:auto;text-rendering:auto;enable-background:accumulate" />
    </g>
  </g>
</svg>
